Cores,SFC,BBox
1,0.51814,0.0582806
2,0.532484,0.102445
4,0.55835,0.137634
8,0.887062,0.225792
16,0.934951,0.316448
32,1.18763,0.467371
64,1.3443,0.664646
128,1.46089,0.747514
256,1.72217,0.926616
512,2.08333,0.931092

