Cores,SFC,BBox
1,0,0
2,1069984,681248
4,2146510.0,1025776
8,2704760.0,1378754.0
16,4678720.0,1727824.0
32,7740240.0,2079724.0
64,8961620.0,2451860.0
128,13883500.0,2451748.0
256,20109880.0,2455148.0
512,20109880.0,2455692.0
